post_title,post_excerpt,post_content,post_status,menu_order,post_date,post_parent,sku,downloadable,virtual,visibility,stock,stock_status,backorders,manage_stock,regular_price,sale_price,weight,length,width,height,tax_status,tax_class,upsell_ids,crosssell_ids,featured,file_path,download_limit,download_expiry,product_url,button_text,images,tax:product_type,tax:product_cat,tax:product_tag,tax:product_shipping_class,meta:woocommerce_sale_flash_type,,attribute:pa_size,attribute_data:pa_size,
Dark brown sheet,Lorem ipsum dolor sit amet  consetetur sadipscing elitr  sed diam nonumy eirmod tempor invidunt ut labore et dolore magna aliquyam erat  sed diam voluptua. At vero eos et accusam et justo duo dolores,Lorem ipsum dolor sit amet  consetetur sadipscing elitr  sed diam nonumy eirmod tempor invidunt ut labore et dolore magna aliquyam erat  sed diam voluptua. At vero eos et accusam et justo duo dolores,publish,0,,0,3530244,no,no,visible,7.0000,instock,no,no,699.0000,,,,,,taxable,reduced-rate,,,,,,,,,"http://ensodubai.com/assets/uploads/877731668.jpg",ENSO,
Light Blue,Lorem ipsum dolor sit amet  consetetur sadipscing elitr  sed diam nonumy eirmod tempor invidunt ut labore et dolore magna aliquyam erat  sed diam voluptua. At vero eos et accusam et justo duo dolores,Lorem ipsum dolor sit amet  consetetur sadipscing elitr  sed diam nonumy eirmod tempor invidunt ut labore et dolore magna aliquyam erat  sed diam voluptua. At vero eos et accusam et justo duo dolores,publish,0,,0,3530245,no,no,visible,,instock,no,no,799.0000,,,,,,taxable,reduced-rate,,,,,,,,,"http://ensodubai.com/assets/uploads/53814117.jpg",ENSO,
Bottom FLAT SHEET KING,T-200 Plain WHITE 290X290,T-200 Plain WHITE 290X290,publish,0,,0,3530254,no,no,visible,0.0000,instock,no,no,165.0000,,,,,,taxable,reduced-rate,,,,,,,,,"http://ensodubai.com/assets/uploads/no_image.png",ENSO,
