post_title,post_excerpt,post_content,post_status,menu_order,post_date,post_parent,sku,downloadable,virtual,visibility,stock,stock_status,backorders,manage_stock,regular_price,sale_price,weight,length,width,height,tax_status,tax_class,upsell_ids,crosssell_ids,featured,file_path,download_limit,download_expiry,product_url,button_text,images,tax:product_type,tax:product_cat,tax:product_tag,tax:product_shipping_class,meta:woocommerce_sale_flash_type,,attribute:pa_size,attribute_data:pa_size,
RAINBOW SUMMER DRESS,Fabric: Woven Fabric Embroidered Lace  Satin and Hard Tulle Petticoat below&nbsp;Inner: Skin Friendly Breathable Fabric with Hidden Stitching Internally Embellishments: Embroidered Woven Lace  Pearls  Flowers  Satin Belt,Fabric: Woven Fabric Embroidered Lace  Satin and Hard Tulle Petticoat below&nbsp;Inner: Skin Friendly Breathable Fabric with Hidden Stitching Internally Embellishments: Embroidered Woven Lace  Pearls  Flowers  Satin Belt,publish,0,,0,101-1069,no,no,visible,3.0000,instock,no,no,89.0000,,,,,,taxable,reduced-rate,,,,,,,,,",http://localhost/cutsandfits/assets/uploads/2a780e51eef7e742d4d7167b99911806.jpg,http://localhost/cutsandfits/assets/uploads/30863a4e8d25519b35908bd0839f0a94.jpg,http://localhost/cutsandfits/assets/uploads/f8cbc5ae10103faa48dbbd9029323808.jpg,http://localhost/cutsandfits/assets/uploads/9216e6800391050e0d1d1ff6bd4438a2.jpg",KiddiFits,
PEACH & WHITE PRINTED FLOWER DRESS,,,publish,0,,0,101-1070,no,no,visible,1.0000,instock,no,no,89.0000,,,,,,taxable,reduced-rate,,,,,,,,,"http://localhost/cutsandfits/assets/uploads/101-1070.jpg,http://localhost/cutsandfits/assets/uploads/34eda619842607f6594b908de7f846f6.jpg,http://localhost/cutsandfits/assets/uploads/97c30e50713faf83bdbce6555d43c833.jpg,http://localhost/cutsandfits/assets/uploads/234ad66a0889ad7bc2648f514c97fb7d.jpg",KiddiFits,
