Name,Code,Barcode Symbology,Brand,Category Code,Unit Code,Sale Unit Code,Purchase Unit Code,Cost,Price,Alert Quantity,Tax Rate,Tax Method,Image,Sub Category Code,Product Variants,Product Custom Field 1,Product Custom Field 2,Product Custom Field 3,Product Custom Field 4,Product Custom Field 5,Product Custom Field 6,Quantity,Featured (Shop Related Item),Active,free shipping
Autumn Hijab,307-30177,code128,Senorita Trends,3001,Pc,Pc,Pc,15,45,2,,Inclusive,,ST-307,,,,,,,,10,no,no,no
Autumn Hijab,307-30178,code128,Senorita Trends,3001,Pc,Pc,Pc,15,45,2,,Inclusive,,ST-307,,,,,,,,10,no,no,no
Autumn Hijab,307-30179,code128,Senorita Trends,3001,Pc,Pc,Pc,15,45,2,,Inclusive,,ST-307,,,,,,,,10,no,no,no
Autumn Hijab,307-30180,code128,Senorita Trends,3001,Pc,Pc,Pc,15,45,2,,Inclusive,,ST-307,,,,,,,,10,no,no,no
Autumn Hijab,307-30181,code128,Senorita Trends,3001,Pc,Pc,Pc,15,45,2,,Inclusive,,ST-307,,,,,,,,10,no,no,no
Autumn Hijab,307-30182,code128,Senorita Trends,3001,Pc,Pc,Pc,15,45,2,,Inclusive,,ST-307,,,,,,,,10,no,no,no
Autumn Hijab,307-30183,code128,Senorita Trends,3001,Pc,Pc,Pc,15,45,2,,Inclusive,,ST-307,,,,,,,,10,no,no,no
Autumn Hijab,307-30184,code128,Senorita Trends,3001,Pc,Pc,Pc,15,45,2,,Inclusive,,ST-307,,,,,,,,10,no,no,no
Autumn Hijab,307-30185,code128,Senorita Trends,3001,Pc,Pc,Pc,15,45,2,,Inclusive,,ST-307,,,,,,,,10,no,no,no
Autumn Hijab,307-30186,code128,Senorita Trends,3001,Pc,Pc,Pc,15,45,2,,Inclusive,,ST-307,,,,,,,,10,no,no,no
Autumn Hijab,307-30187,code128,Senorita Trends,3001,Pc,Pc,Pc,15,45,2,,Inclusive,,ST-307,,,,,,,,10,no,no,no
Autumn Hijab,307-30188,code128,Senorita Trends,3001,Pc,Pc,Pc,15,45,2,,Inclusive,,ST-307,,,,,,,,10,no,no,no
Autumn Hijab,307-30189,code128,Senorita Trends,3001,Pc,Pc,Pc,15,45,2,,Inclusive,,ST-307,,,,,,,,10,no,no,no
Autumn Hijab,307-30190,code128,Senorita Trends,3001,Pc,Pc,Pc,15,45,2,,Inclusive,,ST-307,,,,,,,,10,no,no,no
Autumn Hijab,307-30191,code128,Senorita Trends,3001,Pc,Pc,Pc,15,45,2,,Inclusive,,ST-307,,,,,,,,10,no,no,no
Autumn Hijab,307-30192,code128,Senorita Trends,3001,Pc,Pc,Pc,15,45,2,,Inclusive,,ST-307,,,,,,,,10,no,no,no
Autumn Hijab,307-30193,code128,Senorita Trends,3001,Pc,Pc,Pc,15,45,2,,Inclusive,,ST-307,,,,,,,,10,no,no,no
Autumn Hijab,307-30194,code128,Senorita Trends,3001,Pc,Pc,Pc,15,45,2,,Inclusive,,ST-307,,,,,,,,10,no,no,no
Autumn Hijab,307-30195,code128,Senorita Trends,3001,Pc,Pc,Pc,15,45,2,,Inclusive,,ST-307,,,,,,,,10,no,no,no
