Name,Code,Barcode Symbology,Brand,Category Code,Author,Publisher,Number Of Pages,Cost,Price,Alert Quantity, Tax Rate Name,Tax Method,Image,Subcategory Code,Product Variants Separated by |,Custom Field 1,Custom Field 2,Custom Field 3,Custom Field 4,Custom Field 5,Custom Field 6,featured,status,free_shipment
The Fighter jet,76103024,code128, Arabic,105,205,105,102,90,699,2,No Tax,exclusive,"https://images-na.ssl-images-amazon.com/images/I/51Ggd4wCGSL._SX327_BO1,204,203,200_.jpg",,,,,,,,,0,1,0
The Fighter jet series 2,36133024,code128,English,105,205,105,102,190,799,2,No Tax,exclusive,"https://images-na.ssl-images-amazon.com/images/I/51fFT1q4S7L._SX332_BO1,204,203,200_.jpg",,,,,,,,,0,1,0
