"Product Code","Product Name",Variant,Expected,Counted
100001,"OAK/DS Thread Count 210","Charcoal / SK-K",8.0000,
100001,"OAK/DS Thread Count 210","Charcoal / Q-F",5.0000,
100001,"OAK/DS Thread Count 210","Charcoal / S",3.0000,
100001,"OAK/DS Thread Count 210","White / SK-K",8.0000,
100001,"OAK/DS Thread Count 210","White / Q-F",6.0000,
100001,"OAK/DS Thread Count 210","White / S",3.0000,
100002,"OAK/SS Thread Count 210","Charcoal / SK",4.0000,
100002,"OAK/SS Thread Count 210","Charcoal / K",4.0000,
100002,"OAK/SS Thread Count 210","Charcoal / Q",2.0000,
100002,"OAK/SS Thread Count 210","Charcoal / F",3.0000,
100002,"OAK/SS Thread Count 210","Charcoal / S",3.0000,
100002,"OAK/SS Thread Count 210","White / SK",4.0000,
100002,"OAK/SS Thread Count 210","White / K",4.0000,
100002,"OAK/SS Thread Count 210","White / Q",3.0000,
100002,"OAK/SS Thread Count 210","White / F",3.0000,
100002,"OAK/SS Thread Count 210","White / S",3.0000,
100003,"OAK/DC Thread Count 210","Charcoal / SK-K",4.0000,
100003,"OAK/DC Thread Count 210","Charcoal / Q-F",4.0000,
100003,"OAK/DC Thread Count 210","Charcoal / S",3.0000,
100003,"OAK/DC Thread Count 210","White / SK-K",4.0000,
100003,"OAK/DC Thread Count 210","White / Q-F",4.0000,
100003,"OAK/DC Thread Count 210","White / S",3.0000,
100004,"OAK/TS Thread Count 210","Charcoal / SK-K",4.0000,
100004,"OAK/TS Thread Count 210","Charcoal / Q-F",4.0000,
100004,"OAK/TS Thread Count 210","Charcoal / S",1.0000,
100004,"OAK/TS Thread Count 210","White / SK-K",4.0000,
100004,"OAK/TS Thread Count 210","White / Q-F",4.0000,
100004,"OAK/TS Thread Count 210","White / S",3.0000,
100005,"OAK/FS Thread Count 210","Charcoal / SK",2.0000,
100005,"OAK/FS Thread Count 210","Charcoal / K",2.0000,
100005,"OAK/FS Thread Count 210","Charcoal / Q",3.0000,
100005,"OAK/FS Thread Count 210","Charcoal / F",3.0000,
100005,"OAK/FS Thread Count 210","Charcoal / S",3.0000,
100005,"OAK/FS Thread Count 210","White / S",3.0000,
100005,"OAK/FS Thread Count 210","White / F",3.0000,
100005,"OAK/FS Thread Count 210","White / Q",3.0000,
100005,"OAK/FS Thread Count 210","White / K",2.0000,
100005,"OAK/FS Thread Count 210","White / SK",2.0000,
100006,"OAK/OPC Thread Count 210","Charcoal / ",19.0000,
100006,"OAK/OPC Thread Count 210","White / ",19.0000,
100007,"OAK/UPC Thread Count 210","Charcoal / K",23.0000,
100007,"OAK/UPC Thread Count 210","White / K",23.0000,
100008,"ASH/DS Thread Count 210","Charcoal / SK-K",7.0000,
100008,"ASH/DS Thread Count 210","White / SK-K",8.0000,
100008,"ASH/DS Thread Count 210","White / Q-F",6.0000,
100008,"ASH/DS Thread Count 210","Charcoal / Q-F",6.0000,
100009,"ASH/SS Thread Count 210","White / SK",4.0000,
100009,"ASH/SS Thread Count 210","White / K",4.0000,
100009,"ASH/SS Thread Count 210","White / Q",3.0000,
100009,"ASH/SS Thread Count 210","White / F",3.0000,
100009,"ASH/SS Thread Count 210","Charcoal / SK",4.0000,
100009,"ASH/SS Thread Count 210","Charcoal / K",4.0000,
100009,"ASH/SS Thread Count 210","Charcoal / Q",3.0000,
100009,"ASH/SS Thread Count 210","Charcoal / F",3.0000,
100010,"ASH/DC Thread Count 210","White / SK-K",4.0000,
100010,"ASH/DC Thread Count 210","White / Q-F",4.0000,
100010,"ASH/DC Thread Count 210","Charcoal / SK-K",3.0000,
100010,"ASH/DC Thread Count 210","Charcoal / Q-F",3.0000,
100011,"ASH/TS Thread Count 210","White / SK-K",5.0000,
100011,"ASH/TS Thread Count 210","Charcoal / SK-K",4.0000,
100011,"ASH/TS Thread Count 210","White / Q-F",3.0000,
100011,"ASH/TS Thread Count 210","Charcoal / Q-F",2.0000,
100012,"ASH/FS Thread Count 210","White / SK",2.0000,
100012,"ASH/FS Thread Count 210","White / K",2.0000,
100012,"ASH/FS Thread Count 210","White / Q",3.0000,
100012,"ASH/FS Thread Count 210","White / F",2.0000,
100012,"ASH/FS Thread Count 210","Charcoal / SK",2.0000,
100012,"ASH/FS Thread Count 210","Charcoal / K",2.0000,
100012,"ASH/FS Thread Count 210","Charcoal / Q",3.0000,
100012,"ASH/FS Thread Count 210","Charcoal / F",3.0000,
100013,"ASH/OPC Thread Count 210","White / K",0.0000,
100013,"ASH/OPC Thread Count 210","Charcoal / K",0.0000,
100013,"ASH/OPC Thread Count 210","Charcoal / Pillow/ 50 cm x 75 cm Standard",22.0000,
100013,"ASH/OPC Thread Count 210","White / Pillow/ 50 cm x 75 cm Standard",22.0000,
100014,"ASH/UPC Thread count 210","White / K",26.0000,
100014,"ASH/UPC Thread count 210","Charcoal / K",22.0000,
100015,"TUPELO/DS Thread Count 210","Charcoal/White / SK-K",6.0000,
100015,"TUPELO/DS Thread Count 210","Charcoal/White / Q-F",8.0000,
100015,"TUPELO/DS Thread Count 210","Charcoal/White / S",4.0000,
100016,"TUPELO/SS Thread Count 210","Charcoal/White / SK",3.0000,
100016,"TUPELO/SS Thread Count 210","Charcoal/White / K",3.0000,
100016,"TUPELO/SS Thread Count 210","Charcoal/White / Q",4.0000,
100016,"TUPELO/SS Thread Count 210","Charcoal/White / F",4.0000,
100016,"TUPELO/SS Thread Count 210","Charcoal/White / S",4.0000,
100017,"TUPELO/DC  Thread Count 210","Charcoal/White / SK-K",4.0000,
100017,"TUPELO/DC  Thread Count 210","Charcoal/White / Q-F",4.0000,
100017,"TUPELO/DC  Thread Count 210","Charcoal/White / S",4.0000,
100018,"TUPELO/TS Thread Count 210","Charcoal/White / SK-K",3.0000,
100018,"TUPELO/TS Thread Count 210","Charcoal/White / Q-F",2.0000,
100018,"TUPELO/TS Thread Count 210","Charcoal/White / S",2.0000,
100019,"TUPELO/FS Thread Count 210","Charcoal/White / SK",3.0000,
100019,"TUPELO/FS Thread Count 210","Charcoal/White / K",3.0000,
100019,"TUPELO/FS Thread Count 210","Charcoal/White / Q",4.0000,
100019,"TUPELO/FS Thread Count 210","Charcoal/White / F",2.0000,
100019,"TUPELO/FS Thread Count 210","Charcoal/White / S",4.0000,
100020,"TUPELO/OPC Thread Count 210","Charcoal/White / K",28.0000,
100021,"TUPELO/UPC Thread Count 210","Charcoal/White / K",28.0000,
100022,"ROBLE/DS Thread Count 300","Charcoal / Q-F",8.0000,
100022,"ROBLE/DS Thread Count 300","White / Q-F",8.0000,
100022,"ROBLE/DS Thread Count 300","Charcoal / SK-K",8.0000,
100022,"ROBLE/DS Thread Count 300","White / SK-K",8.0000,
100022,"ROBLE/DS Thread Count 300","White / S",5.0000,
100022,"ROBLE/DS Thread Count 300","Charcoal / S",5.0000,
100023,"ROBLE/SS Thread Count 300","White / SK",4.0000,
100023,"ROBLE/SS Thread Count 300","Charcoal / SK",4.0000,
100023,"ROBLE/SS Thread Count 300","White / K",4.0000,
100023,"ROBLE/SS Thread Count 300","Charcoal / K",4.0000,
100023,"ROBLE/SS Thread Count 300","White / Q",4.0000,
100023,"ROBLE/SS Thread Count 300","Charcoal / Q",4.0000,
100023,"ROBLE/SS Thread Count 300","White / F",4.0000,
100023,"ROBLE/SS Thread Count 300","Charcoal / F",4.0000,
100023,"ROBLE/SS Thread Count 300","White / S",5.0000,
100023,"ROBLE/SS Thread Count 300","Charcoal / S",5.0000,
100024,"ROBLE/DC Thread Count 300","Charcoal / Q-F",1.0000,
100024,"ROBLE/DC Thread Count 300","White / Q-F",2.0000,
100024,"ROBLE/DC Thread Count 300","Charcoal / SK-K",4.0000,
100024,"ROBLE/DC Thread Count 300","White / SK-K",4.0000,
100024,"ROBLE/DC Thread Count 300","White / S",3.0000,
100024,"ROBLE/DC Thread Count 300","Charcoal / S",3.0000,
100025,"ROBLE/FS Thread Count 300","White / S",3.0000,
100025,"ROBLE/FS Thread Count 300","White / Q",2.0000,
100025,"ROBLE/FS Thread Count 300","White / K",2.0000,
100025,"ROBLE/FS Thread Count 300","White / SK",2.0000,
100025,"ROBLE/FS Thread Count 300","Charcoal / S",1.0000,
100025,"ROBLE/FS Thread Count 300","Charcoal / SK",2.0000,
100026,"ROBLE/OPC Thread Count 300","White / K",14.0000,
100026,"ROBLE/OPC Thread Count 300","Charcoal / K",11.0000,
100027,"ROBLE/UPC Thread Count 300","Charcoal / K",11.0000,
100027,"ROBLE/UPC Thread Count 300","White / K",10.0000,
100028,"ARGAN/DS Thread Count 300","White / SK",4.0000,
100028,"ARGAN/DS Thread Count 300","Charcoal / S",1.0000,
100028,"ARGAN/DS Thread Count 300","Charcoal / Q-F",6.0000,
100028,"ARGAN/DS Thread Count 300","White / Q-F",6.0000,
100028,"ARGAN/DS Thread Count 300","Charcoal / K",4.0000,
100028,"ARGAN/DS Thread Count 300","White / K",4.0000,
100028,"ARGAN/DS Thread Count 300","Charcoal / SK",4.0000,
100028,"ARGAN/DS Thread Count 300","White / S",2.0000,
100029,"ARGAN/SS Thread Count 300","White / SK",4.0000,
100029,"ARGAN/SS Thread Count 300","Charcoal / SK",4.0000,
100029,"ARGAN/SS Thread Count 300","White / K",4.0000,
100029,"ARGAN/SS Thread Count 300","Charcoal / K",4.0000,
100029,"ARGAN/SS Thread Count 300","White / Q",3.0000,
100029,"ARGAN/SS Thread Count 300","Charcoal / Q",3.0000,
100029,"ARGAN/SS Thread Count 300","White / F",3.0000,
100029,"ARGAN/SS Thread Count 300","Charcoal / F",3.0000,
100029,"ARGAN/SS Thread Count 300","White / S",2.0000,
100029,"ARGAN/SS Thread Count 300","Charcoal / S",2.0000,
100030,"ARGAN/DC Thread Count 300","White / SK-K",4.0000,
100030,"ARGAN/DC Thread Count 300","Charcoal / SK-K",2.0000,
100030,"ARGAN/DC Thread Count 300","White / Q-F",2.0000,
100030,"ARGAN/DC Thread Count 300","Charcoal / Q-F",2.0000,
100031,"ARGAN/TS Thread Count 300","White / SK-K",2.0000,
100031,"ARGAN/TS Thread Count 300","Charcoal / SK-K",4.0000,
100031,"ARGAN/TS Thread Count 300","White / Q-F",4.0000,
100031,"ARGAN/TS Thread Count 300","Charcoal / Q-F",4.0000,
100031,"ARGAN/TS Thread Count 300","Charcoal / S",2.0000,
100032,"ARGAN/FS Thread Count 300","White / SK",1.0000,
100032,"ARGAN/FS Thread Count 300","Charcoal / SK",1.0000,
100032,"ARGAN/FS Thread Count 300","Charcoal / K",1.0000,
100032,"ARGAN/FS Thread Count 300","White / Q",2.0000,
100032,"ARGAN/FS Thread Count 300","Charcoal / Q",2.0000,
100032,"ARGAN/FS Thread Count 300","Charcoal / S",2.0000,
100033,"ARGAN/OPC Thread Count 300","White / SK",6.0000,
100033,"ARGAN/OPC Thread Count 300","White / K",8.0000,
100033,"ARGAN/OPC Thread Count 300","Charcoal / SK",6.0000,
100033,"ARGAN/OPC Thread Count 300","Charcoal / K",8.0000,
100034,"ARGAN/UPC Thread Count 300","White / SK-K",4.0000,
100034,"ARGAN/UPC Thread Count 300","Charcoal / SK-K",6.0000,
100034,"ARGAN/UPC Thread Count 300","White / K",10.0000,
100034,"ARGAN/UPC Thread Count 300","Charcoal / K",7.0000,
100035,"CEDRO/DS Thread Count 300","White / SK",4.0000,
100035,"CEDRO/DS Thread Count 300","White / K",4.0000,
100035,"CEDRO/DS Thread Count 300","White / Q-F",5.0000,
100036,"CEDRO/SS Thread Count 300","White / SK",4.0000,
100036,"CEDRO/SS Thread Count 300","White / K",4.0000,
100036,"CEDRO/SS Thread Count 300","White / Q",5.0000,
100037,"CEDRO/DC Thread Count 300","White / SK-K",2.0000,
100037,"CEDRO/DC Thread Count 300","White / Q-F",3.0000,
100038,"CEDRO/TS Thread Count 300","White / SK-K",2.0000,
100038,"CEDRO/TS Thread Count 300","White / Q-F",3.0000,
100039,"CEDRO/FS Thread Count 300","White / SK",1.0000,
100039,"CEDRO/FS Thread Count 300","White / K",1.0000,
100039,"CEDRO/FS Thread Count 300","White / Q",3.0000,
100040,"CEDRO/OPC Thread Count 300","White / SK",4.0000,
100040,"CEDRO/OPC Thread Count 300","White / K",12.0000,
100041,"CEDRO/UPC Thread Count 300","White / SK",4.0000,
100041,"CEDRO/UPC Thread Count 300","White / K",10.0000,
100042,"OLIVE/DS Thread Count 300","White / SK",3.0000,
100042,"OLIVE/DS Thread Count 300","Charcoal / SK",3.0000,
100042,"OLIVE/DS Thread Count 300","White / K",2.0000,
100042,"OLIVE/DS Thread Count 300","Charcoal / K",2.0000,
100042,"OLIVE/DS Thread Count 300","White / Q-F",3.0000,
100042,"OLIVE/DS Thread Count 300","Charcoal / Q-F",3.0000,
100043,"OLIVE/SS Thread Count 300","White / SK",3.0000,
100043,"OLIVE/SS Thread Count 300","Charcoal / SK",3.0000,
100043,"OLIVE/SS Thread Count 300","White / K",2.0000,
100043,"OLIVE/SS Thread Count 300","Charcoal / K",2.0000,
100043,"OLIVE/SS Thread Count 300","White / Q",3.0000,
100043,"OLIVE/SS Thread Count 300","Charcoal / Q",3.0000,
100044,"OLIVE/DC Thread Count 300","White / SK-K",4.0000,
100044,"OLIVE/DC Thread Count 300","Charcoal / SK-K",4.0000,
100044,"OLIVE/DC Thread Count 300","White / Q-F",1.0000,
100044,"OLIVE/DC Thread Count 300","Charcoal / Q-F",1.0000,
100045,"OLIVE/TS Thread Count 300","White / SK-K",4.0000,
100045,"OLIVE/TS Thread Count 300","Charcoal / SK-K",4.0000,
100045,"OLIVE/TS Thread Count 300","White / Q-F",1.0000,
100045,"OLIVE/TS Thread Count 300","Charcoal / Q-F",1.0000,
100046,"OLIVE/FS Thread Count 300","White / SK",2.0000,
100046,"OLIVE/FS Thread Count 300","Charcoal / SK",2.0000,
100046,"OLIVE/FS Thread Count 300","White / K",2.0000,
100046,"OLIVE/FS Thread Count 300","Charcoal / K",2.0000,
100046,"OLIVE/FS Thread Count 300","White / Q",1.0000,
100046,"OLIVE/FS Thread Count 300","Charcoal / Q",1.0000,
100047,"OLIVE/OPC Thread Count 300","White / SK",6.0000,
100047,"OLIVE/OPC Thread Count 300","Charcoal/White / SK",6.0000,
100047,"OLIVE/OPC Thread Count 300","White / K",8.0000,
100047,"OLIVE/OPC Thread Count 300","Charcoal/White / K",8.0000,
100048,"OLIVE/UPC Thread Count 300","White / SK",6.0000,
100048,"OLIVE/UPC Thread Count 300","Charcoal / SK",6.0000,
100048,"OLIVE/UPC Thread Count 300","White / K",8.0000,
100048,"OLIVE/UPC Thread Count 300","Charcoal / K",8.0000,
100049,"BONSAI/DS Thread Count 400","White / SK",3.0000,
100049,"BONSAI/DS Thread Count 400","White / K",2.0000,
100049,"BONSAI/DS Thread Count 400","White / Q-F",3.0000,
100050,"BONSAI/SS Thread Count 400","White / SK",3.0000,
100050,"BONSAI/SS Thread Count 400","White / K",2.0000,
100050,"BONSAI/SS Thread Count 400","White / Q",3.0000,
100051,"BONSAI/DC Thread Count 400","White / SK-K",3.0000,
100051,"BONSAI/DC Thread Count 400","White / Q-F",1.0000,
100052,"BONSAI/TS Thread Count 400","White / SK-K",4.0000,
100052,"BONSAI/TS Thread Count 400","White / Q-F",1.0000,
100053,"BONSAI/FS Thread Count 400","White / SK",2.0000,
100053,"BONSAI/FS Thread Count 400","White / K",2.0000,
100053,"BONSAI/FS Thread Count 400","White / Q",1.0000,
100054,"BONSAI/OPC Thread Count 400","White / SK",6.0000,
100054,"BONSAI/OPC Thread Count 400","White / K",8.0000,
100055,"BONSAI/UPC Thread Count 400","White / SK",6.0000,
100055,"BONSAI/UPC Thread Count 400","White / K",8.0000,
100056,"WILLOW/DS Thread Count 400","White / SK-K",8.0000,
100057,"WILLOW/SS Thread Count 400","White / SK",4.0000,
100057,"WILLOW/SS Thread Count 400","White / K",4.0000,
100058,"WILLOW/DC Thread Count 400","White / SK-K",4.0000,
100059,"WILLOW/TS Thread Count 400","White / SK-K",4.0000,
100060,"WILLOW/FS Thread Count 400","White / SK",2.0000,
100060,"WILLOW/FS Thread Count 400","White / K",2.0000,
100061,"WILLOW/OPC Thread Count 400","White / SK",8.0000,
100062,"WILLOW/UPC Thread Count 400","White / SK",8.0000,
100063,"TUSA/TOWEL-SET 600 gsm",White,6.0000,
100063,"TUSA/TOWEL-SET 600 gsm",Charcoal,6.0000,
100064,"TUSA/BATH-SET 600 gsm",White,10.0000,
100064,"TUSA/BATH-SET 600 gsm",Charcoal,10.0000,
100065,"TUSA/BT 600 gsm","White / 100 cm x 170 cm",78.0000,
100065,"TUSA/BT 600 gsm","Charcoal / 100 cm x 170 cm",77.0000,
100066,"TUSA/HT 600 gsm","White / 40 cm x 60 cm",78.0000,
100066,"TUSA/HT 600 gsm","Charcoal / 40 cm x 60 cm",79.0000,
100067,"TUSA/FT 600 gsm","White / 32 cm x 32 cm",39.0000,
100067,"TUSA/FT 600 gsm","Charcoal / 32 cm x 32 cm",42.0000,
100068,"TUSA/BM 600 gsm","White / 50 cm x 80 cm",86.0000,
100068,"TUSA/BM 600 gsm","Charcoal / 50 cm x 80 cm",89.0000,
100069,"KENAF/TOWEL-SET 600 gsm",Charcoal/Vio,6.0000,
100069,"KENAF/TOWEL-SET 600 gsm",Charcoal/Rd,6.0000,
100069,"KENAF/TOWEL-SET 600 gsm",White/Co,6.0000,
100069,"KENAF/TOWEL-SET 600 gsm",White/RB,6.0000,
100070,"KENAF/BAT-SET 600 gsm",Charcoal/Rd,5.0000,
100070,"KENAF/BAT-SET 600 gsm",Charcoal/Vio,6.0000,
100070,"KENAF/BAT-SET 600 gsm",White/Co,6.0000,
100070,"KENAF/BAT-SET 600 gsm",White/RB,5.0000,
100071,"KENAF/BT 600 gsm","White/RB / 80 cm x 160 cm",30.0000,
100071,"KENAF/BT 600 gsm","White/Co / 80 cm x 160 cm",29.0000,
100071,"KENAF/BT 600 gsm","Charcoal/Rd / 80 cm x 160 cm",28.0000,
100071,"KENAF/BT 600 gsm","Charcoal/Vio / 80 cm x 160 cm",30.0000,
100072,"KENAF/HT 600 gsm","White/RB / 40 cm x 60 cm",32.0000,
100072,"KENAF/HT 600 gsm","White/Co / 40 cm x 60 cm",29.0000,
100072,"KENAF/HT 600 gsm","Charcoal/Rd / 40 cm x 60 cm",32.0000,
100072,"KENAF/HT 600 gsm","Charcoal/Vio / 40 cm x 60 cm",32.0000,
100073,"KENAF/FT 600 gsm","White/RB / 30 cm x 30 cm",18.0000,
100073,"KENAF/FT 600 gsm","White/Co / 30 cm x 30 cm",19.0000,
100073,"KENAF/FT 600 gsm","Charcoal/Rd / 30 cm x 30 cm",19.0000,
100073,"KENAF/FT 600 gsm","Charcoal/Vio / 30 cm x 30 cm",20.0000,
100074,"KENAF/BM 600 gsm","White/RB / 50 cm x 80 cm",44.0000,
100074,"KENAF/BM 600 gsm","White/Co / 50 cm x 80 cm",38.0000,
100074,"KENAF/BM 600 gsm","Charcoal/Rd / 50 cm x 80 cm",42.0000,
100074,"KENAF/BM 600 gsm","Charcoal/Vio / 50 cm x 80 cm",41.0000,
100075,"OSO/BR 600 gsm","Charcoal / Small",49.0000,
100075,"OSO/BR 600 gsm","Charcoal / Medium",79.0000,
100075,"OSO/BR 600 gsm","Charcoal / Large",49.0000,
100075,"OSO/BR 600 gsm","White / Small",50.0000,
100075,"OSO/BR 600 gsm","White / Medium",50.0000,
100075,"OSO/BR 600 gsm","White / Large",49.0000,
100076,"NUBE/BR 600 gsm","Charcoal / Large",48.0000,
100076,"NUBE/BR 600 gsm","Charcoal / Small",50.0000,
100076,"NUBE/BR 600 gsm","Charcoal / Medium",100.0000,
100076,"NUBE/BR 600 gsm","White / Small",50.0000,
100076,"NUBE/BR 600 gsm","White / Medium",50.0000,
100076,"NUBE/BR 600 gsm","White / Large",50.0000,
100077,TCS/EMB/COT-LIN,"White / Large",5.0000,
100077,TCS/EMB/COT-LIN,"White / Medium",10.0000,
100077,TCS/EMB/COT-LIN,"White / Small",5.0000,
100078,TCS/HS/COT-LIN,"White / Large",5.0000,
100078,TCS/HS/COT-LIN,"White / Medium",10.0000,
100078,TCS/HS/COT-LIN,"White / Small",5.0000,
100079,TC/COT-LIN,"White / Large",10.0000,
100079,TC/COT-LIN,"White / Medium",20.0000,
100079,TC/COT-LIN,"White / Small",10.0000,
100080,NAPKIN/EMB/CONT-LIN,"White / 50 cm x 48 cm",120.0000,
100081,NAPKIN/HS/COT-LIN,"White / 50 cm x 48 cm",120.0000,
100082,NAPKIN/STAR/COT-LIN,"White / 40 cm x 40 cm",20.0000,
100083,"TABLE MAT /COT-LIN","White / 38 cm x 48 cm",120.0000,
100083,"TABLE MAT /COT-LIN","Grey / 38 cm x 48 cm",120.0000,
100084,T300/CLUDIA/CUSHION,"White / 51 cm x 51 cm",24.0000,
100085,BEAN-BAG/COT-BONFIRE,"Grey / 130 cm x 270 cm",26.0000,
100086,BEAN-BAG/FLOR/COT-LIN,"Natural / 130 cm x 270 cm",4.0000,
100087,"T-BAG 100% cotton",,0.0000,
100088,NAPKIN/HS2/COT-LIN,"Grey / 50 cm x 48 cm",40.0000,
100089,"TABLE RUNNER/HS2/COT-LIN",,0.0000,
100090,"TABLE MAT /HS2/COT-LIN",,0.0000,
100091,FAB/TULIP,,0.0000,
100092,FAB/BONFIRE,,0.0000,
100093,FAB/FLORENCE,,0.0000,
100094,FAB/CHARCOAL,,0.0000,
100095,CAND/SOY/PEPP,Free,3.0000,
100096,CAND/SOY/SAND,Free,3.0000,
100097,CAND/SOY/BAMP,Free,3.0000,
100098,DISH/KURO,Small,6.0000,
100099,BOWL/KURO,"Black / Small",4.0000,
100099,BOWL/KURO,"Black/White / Small",4.0000,
100100,DISH/MOSS,Tiny,4.0000,
100101,BOWL/MOSS,,4.0000,
100102,CUP/MOSS,,4.0000,
100103,POT/MAC-DOT,Tiny,3.0000,
100104,SPOON/MAC-DOT,Tiny,3.0000,
100105,PLAYA/SL-D/100%LINO,Free,1.0000,
100106,HIPPIE-PANT/100%LINO,Free,1.0000,
100107,TATI/SL-S/100%LINO,Free,1.0000,
100108,MIMI/100%LINO,,0.0000,
100109,SHIRT/S-L/100%LINO,Free,1.0000,
100110,YUYI/HIPPIE-TOP/100%LINO,Free,1.0000,
100111,PEPA/100%LINO,Free,1.0000,
100112,FATIMA-HAND,"Multi Color",42.0000,
100113,Duvet,"White / Duvet/SK- K",20.0000,
100113,Duvet,"White / Duvet/ Single",10.0000,
100113,Duvet,"White / Duvet/ Q- F",12.0000,
100113,Duvet,"White / Duvet/XL-SK",12.0000,
100117,Pillow,"White / Pillow/ 50 cm x 90 cm Large",24.0000,
100117,Pillow,"White / Pillow/ 50 cm x 75 cm Standard",60.0000,
100118,"BEAN BAG FILLING",White,12.0000,
100119,"NAPKIN/HEM/VEGI DESIGN","White / 50 cm x 48 cm",232.0000,
