Product Code,Net Unit Cost,Quantity,Product Variant,Tax Rate Name,Discount,Expiry
301-1001,7.31,20,,No Tax,,
301-1002,7.31,10,,No Tax,,
301-1003,7.31,10,,No Tax,,
301-1004,7.31,20,,No Tax,,
301-1005,7.31,10,,No Tax,,
301-1006,7.31,10,,No Tax,,
301-1007,7.31,10,,No Tax,,
301-1008,7.31,10,,No Tax,,
301-1009,7.31,10,,No Tax,,
301-1010,7.31,10,,No Tax,,
301-1011,7.31,20,,No Tax,,
301-1012,7.31,20,,No Tax,,
301-1013,7.31,10,,No Tax,,
301-1014,7.31,10,,No Tax,,
301-1015,7.31,10,,No Tax,,
301-1016,7.31,10,,No Tax,,
301-1017,7.31,10,,No Tax,,
301-1018,7.31,10,,No Tax,,
301-1019,7.31,10,,No Tax,,
301-1020,7.31,20,,No Tax,,
301-1021,7.31,10,,No Tax,,
301-1022,7.31,10,,No Tax,,
301-1023,7.31,10,,No Tax,,
301-1024,7.31,10,,No Tax,,
301-1025,7.31,10,,No Tax,,
301-1026,7.31,10,,No Tax,,
301-1027,7.31,10,,No Tax,,
301-1028,7.31,10,,No Tax,,
301-1029,7.31,10,,No Tax,,
301-1030,7.31,10,,No Tax,,
301-1031,7.31,10,,No Tax,,
301-1032,7.31,10,,No Tax,,
301-1033,7.31,10,,No Tax,,
301-1034,7.31,10,,No Tax,,
301-1035,7.31,10,,No Tax,,
301-1036,7.31,20,,No Tax,,
301-1037,7.31,10,,No Tax,,
301-1038,7.31,10,,No Tax,,
301-1039,7.31,30,,No Tax,,
301-1040,7.31,20,,No Tax,,
301-1041,7.31,10,,No Tax,,
303-3001,4.29,10,,No Tax,,
303-3002,4.29,10,,No Tax,,
303-3003,4.29,10,,No Tax,,
303-3004,4.29,10,,No Tax,,
303-3005,4.29,10,,No Tax,,
303-3006,4.29,10,,No Tax,,
303-3007,4.29,10,,No Tax,,
303-3008,4.29,10,,No Tax,,
303-3009,4.29,10,,No Tax,,
303-3010,4.29,10,,No Tax,,
303-3011,4.29,10,,No Tax,,
303-3012,4.29,10,,No Tax,,
303-3013,4.29,10,,No Tax,,
303-3014,4.29,10,,No Tax,,
303-3015,4.29,10,,No Tax,,
303-3016,4.29,10,,No Tax,,
303-3017,4.29,10,,No Tax,,
303-3018,4.29,10,,No Tax,,
303-3019,4.29,10,,No Tax,,
303-3020,4.29,10,,No Tax,,
311-0001,7.42,10,,No Tax,,
311-0002,7.42,10,,No Tax,,
311-0003,7.42,10,,No Tax,,
311-0004,7.42,10,,No Tax,,
311-0005,7.42,10,,No Tax,,
311-0006,7.42,10,,No Tax,,
311-0007,7.42,10,,No Tax,,
311-0008,7.42,10,,No Tax,,
311-0009,7.42,20,,No Tax,,
311-0010,7.42,20,,No Tax,,
311-0011,7.42,10,,No Tax,,
311-0012,7.42,10,,No Tax,,
312-0001,5.69,10,,No Tax,,
312-0002,5.69,10,,No Tax,,
312-0003,5.69,10,,No Tax,,
312-0004,5.69,10,,No Tax,,
312-0005,5.69,10,,No Tax,,
312-0006,5.69,10,,No Tax,,
312-0007,5.69,10,,No Tax,,
312-0008,5.69,10,,No Tax,,
312-0009,5.69,10,,No Tax,,
312-0010,5.69,10,,No Tax,,
312-0011,5.69,10,,No Tax,,
312-0012,5.69,10,,No Tax,,
312-0013,5.69,10,,No Tax,,
312-0014,5.69,10,,No Tax,,
312-0015,5.69,10,,No Tax,,
312-0016,5.69,10,,No Tax,,
312-0017,5.69,10,,No Tax,,
312-0018,5.69,10,,No Tax,,
312-0019,5.69,10,,No Tax,,
312-0020,5.69,10,,No Tax,,
312-0021,5.69,10,,No Tax,,
312-0022,5.69,10,,No Tax,,
312-0023,5.69,10,,No Tax,,
312-0024,5.69,10,,No Tax,,
312-0025,5.69,10,,No Tax,,
312-0026,5.69,10,,No Tax,,
312-0027,5.69,10,,No Tax,,
312-0028,5.69,10,,No Tax,,
312-0029,5.69,10,,No Tax,,
312-0030,5.69,10,,No Tax,,
312-0031,5.69,10,,No Tax,,
312-0032,5.69,10,,No Tax,,
312-0033,5.69,10,,No Tax,,
312-0034,5.69,10,,No Tax,,
312-0035,5.69,10,,No Tax,,
312-0036,5.69,10,,No Tax,,
312-0037,5.69,10,,No Tax,,
312-0038,5.69,10,,No Tax,,
312-0039,5.69,10,,No Tax,,
312-0040,5.69,10,,No Tax,,
312-0041,5.69,10,,No Tax,,
312-0042,5.69,10,,No Tax,,
312-0043,5.69,10,,No Tax,,
312-0044,5.69,10,,No Tax,,
312-0045,5.69,10,,No Tax,,
312-0046,5.69,10,,No Tax,,
312-0047,5.69,10,,No Tax,,
312-0048,5.69,10,,No Tax,,
312-0049,5.69,10,,No Tax,,
312-0050,5.69,10,,No Tax,,
312-0051,5.69,10,,No Tax,,
312-0052,5.69,10,,No Tax,,
312-0053,5.69,10,,No Tax,,
312-0054,5.69,10,,No Tax,,
